…
}
```

OK, let's try it out: 

```r
luminescence_graph(Luc_data2, genotype = "wt") + labs(title = "Scaled luminescence vs ZT for WT plants")
```

```
## # A tibble: 71 x 5
##       ZT    lum lum_sd lum_se lum_scaled
##    <dbl>  <dbl>  <dbl>  <dbl>      <dbl>
##  1    36 79009. 13168.  0.167     0.467 
##  2    38 79130. 12886.  0.163     0.542 
##  3    40 79454. 13043.  0.164     0.744 
##  4    42 79498. 13248.  0.167     0.771 
##  5    44 79436. 13313.  0.168     0.732 
##  6    46 79431. 13315.  0.168     0.729 
##  7    48 79103. 13232.  0.167     0.525 
##  8    50 78534. 12879.  0.164     0.171 
##  9    52 78258. 12709.  0.162     0     
## 10    54 78294. 13016.  0.166     0.0219
## # ... with 61 more rows
```
…
```r
luminescence_graph(Luc_data2, genotype = "95.01") + labs(title = "Scaled Luminescence vs ZT for 95.01")
```

```
## # A tibble: 71 x 5
##       ZT     lum  lum_sd lum_se lum_scaled
##    <dbl>   <dbl>   <dbl>  <dbl>      <dbl>
##  1    36 439930. 177305.  0.403      0.261
##  2    38 434497. 176225.  0.406      0    
##  3    40 440297. 179942.  0.409      0.279
##  4    42 449409. 185288.  0.412      0.717
##  5    44 455283. 189951.  0.417      1    
##  6    46 453961. 187584.  0.413      0.936
##  7    48 448925. 184266.  0.410      0.694
##  8    50 443605. 181388.  0.409      0.438
##  9    52 438875. 180160.  0.411      0.211
## 10    54 440565. 180974.  0.411      0.292
## # ... with 61 more rows
```
…
```r
luminescence_graph(Luc_data2, genotype = "97.30") + labs(title = "Scaled Luminescence vs ZT for 97.30")
```

```
## # A tibble: 71 x 5
##       ZT     lum lum_sd lum_se lum_scaled
##    <dbl>   <dbl>  <dbl>  <dbl>      <dbl>
##  1    36 245005. 84893.  0.346      0.850
##  2    38 243012. 84935.  0.350      0.717
##  3    40 239162. 83252.  0.348      0.460
##  4    42 238332. 84035.  0.353      0.404
##  5    44 239334. 83043.  0.347      0.471
##  6    46 237339. 81863.  0.345      0.338
##  7    48 239131. 84344.  0.353      0.458
##  8    50 237234. 83449.  0.352      0.331
##  9    52 234997. 79600.  0.339      0.181
## 10    54 235128. 80310.  0.342      0.190
## # ... with 61 more rows
```
…
```r
luminescence_graph(Luc_data2, genotype = "96.13") + labs(title = "Scaled Luminescence vs ZT for 96.13")
```

```
## # A tibble: 71 x 5
##       ZT   lum lum_sd lum_se lum_scaled
##    <dbl> <dbl>  <dbl>  <dbl>      <dbl>
##  1    36   NaN     NA     NA        NaN
##  2    38   NaN     NA     NA        NaN
##  3    40   NaN     NA     NA        NaN
##  4    42   NaN     NA     NA        NaN
##  5    44   NaN     NA     NA        NaN
##  6    46   NaN     NA     NA        NaN
##  7    48   NaN     NA     NA        NaN
##  8    50   NaN     NA     NA        NaN
##  9    52   NaN     NA     NA        NaN
## 10    54   NaN     NA     NA        NaN
## # ... with 61 more rows
```
…
```
## Parsed with column specification:
## cols(
##   LungCap = col_double(),
##   Age = col_double(),
##   Height = col_double(),
##   Smoke = col_character(),
##   Gender = col_character(),
##   Caesarean = col_character()
## )
```

```
## # A tibble: 725 x 6
##    LungCap   Age Height Smoke Gender Caesarean
##      <dbl> <dbl>  <dbl> <chr> <chr>  <chr>    
##  1    6.48     6   62.1 no    male   no       
##  2   10.1     18   74.7 yes   female no       
##  3    9.55    16   69.7 no    female yes      
##  4   11.1     14   71   no    male   no       
##  5    4.8      5   56.9 no    male   no       
##  6    6.22    11   58.7 no    female no       
##  7    4.95     8   63.3 no    male   yes      
##  8    7.32    11   70.4 no    male   no       
##  9    8.88    15   70.5 no    male   no       
## 10    6.8     11   59.2 no    male   no       
## # ... with 715 more rows
```
…
