…
```r
Lum_vs_time
```

```
## # A tibble: 284 x 3
##    true_genotype  time    lum
##    <fct>         <int>  <dbl>
##  1 wt               36 79009.
##  2 wt               38 79130.
##  3 wt               40 79454.
##  4 wt               42 79498.
##  5 wt               44 79436.
##  6 wt               46 79431.
##  7 wt               48 79103.
##  8 wt               50 78534.
##  9 wt               52 78258.
## 10 wt               54 78294.
## # ... with 274 more rows
```
