…
From this, we can see that there are shade groups (designated with prefix `SH`) and sun groups (designated with prefix `SUN`) and also that there are four groups. Interestingly, there appears to be a partially redundant 9th group, `SH_B_end`. I wonder what happened there? Was there something special about this group that necessitated it being separated from the other members of `SH_B`?
How were the flowers planted and grouped? How was shade applied to these groups? Let's take a look at a couple of the groups: 

```r
applyA <- flowey %>%
  filter(condition == "sun" & group == "A") %>%
  separate(field_ID, sep = -2, into = c("bleh", "ID"), convert = TRUE)
applyA[order(applyA$ID), ]
```

```
## # A tibble: 45 x 18
##    DNA_ID bleh     ID genotype group row   `end?` condition germ  yellow
##    <chr>  <chr> <int> <chr>    <chr> <chr> <chr>  <chr>     <chr> <chr> 
##  1 D132   SUN_~     1 WT       A     SUN_A end    sun       06_0~ 07_30~
##  2 D133   SUN_~     2 WT       A     SUN_A end    sun       06_0~ 07_30~
##  3 D134   SUN_~     3 WT       A     SUN_A middle sun       06_0~ 07_29~
##  4 D161   SUN_~     4 WT       A     SUN_A middle sun       06_0~ 08_01~
##  5 D168   SUN_~     5 elf3     A     SUN_A middle sun       06_0~ 08_01~
##  6 D169   SUN_~     6 elf3     A     SUN_A middle sun       06_0~ 08_02~
##  7 D171   SUN_~     7 elf3     A     SUN_A middle sun       06_0~ 08_01~
##  8 D172   SUN_~     8 elf3     A     SUN_A middle sun       06_0~ 07_29~
##  9 D136   SUN_~     9 WT       A     SUN_A middle sun       06_0~ 07_30~
## 10 D137   SUN_~    10 WT       A     SUN_A middle sun       06_0~ 07_30~
## # ... with 35 more rows, and 8 more variables: flowering <chr>,
## #   final <chr>, diameter <dbl>, direction <chr>, height <dbl>,
## #   leaf_num <dbl>, ax_heads <dbl>, notes <chr>
```
…
