…
```r
filter(data1, is.na(number) == T)
```

```
## # A tibble: 48 x 12
##    number genotype treatment   DAG hypocotyl_length hypcotyl_pixels cm_pixels
##     <dbl> <chr>    <chr>     <dbl>            <dbl>           <dbl>     <dbl>
##  1     NA <NA>     <NA>         NA               NA              NA        NA
##  2     NA <NA>     <NA>         NA               NA              NA        NA
##  3     NA <NA>     <NA>         NA               NA              NA        NA
##  4     NA <NA>     <NA>         NA               NA              NA        NA
##  5     NA <NA>     <NA>         NA               NA              NA        NA
##  6     NA <NA>     <NA>         NA               NA              NA        NA
##  7     NA <NA>     <NA>         NA               NA              NA        NA
##  8     NA <NA>     <NA>         NA               NA              NA        NA
##  9     NA <NA>     <NA>         NA               NA              NA        NA
## 10     NA <NA>     <NA>         NA               NA              NA        NA
## # ... with 38 more rows, and 5 more variables: first_internode_length <dbl>,
## #   first_internode_pixels <dbl>, germination_notes <chr>, `image used` <chr>,
## #   X12 <lgl>
```
…
