…
###Question 3

OK, so we need to gather some data per Veronica's instructions. Let's see: 

```r
data_long <- data %>%
  pivot_longer(cols = yellow:final, names_to = "dev_stage", values_to = "dev_date")
data_long
```

```
## # A tibble: 846 x 22
##    DNA_ID field_ID genotype group row   row_ID `end?` condition germ      
##    <chr>  <chr>    <fct>    <fct> <chr>  <int> <fct>  <fct>     <date>    
##  1 D132   SUN_A_01 WT       A     SUN_A      1 end    sun       2019-06-07
##  2 D132   SUN_A_01 WT       A     SUN_A      1 end    sun       2019-06-07
##  3 D132   SUN_A_01 WT       A     SUN_A      1 end    sun       2019-06-07
##  4 D133   SUN_A_02 WT       A     SUN_A      2 end    sun       2019-06-08
##  5 D133   SUN_A_02 WT       A     SUN_A      2 end    sun       2019-06-08
##  6 D133   SUN_A_02 WT       A     SUN_A      2 end    sun       2019-06-08
##  7 D134   SUN_A_03 WT       A     SUN_A      3 middle sun       2019-06-08
##  8 D134   SUN_A_03 WT       A     SUN_A      3 middle sun       2019-06-08
##  9 D134   SUN_A_03 WT       A     SUN_A      3 middle sun       2019-06-08
## 10 D136   SUN_A_09 WT       A     SUN_A      9 middle sun       2019-06-08
## # ... with 836 more rows, and 13 more variables: diameter <dbl>,
## #   direction <chr>, height <dbl>, leaf_num <dbl>, ax_heads <dbl>, notes <chr>,
## #   flowering_time <int>, flowering_duration <int>, leaf_frequency <dbl>,
## #   flowering_rate <dbl>, geno_cond <fct>, dev_stage <chr>, dev_date <date>
```
…
